plots/7-seg duty cycle.csv

#Digilent WaveForms Oscilloscope Acquisition
#Device Name: Discovery_2
#Date Time: 2026-04-18 18:58:52.117
#Sample rate: 90009Hz
#Samples: 8192
#Trigger: Source: Channel 1 Type: Edge Condition: Falling Level: -300 mV Hyst.: Auto HoldOff: 0 s
#Channel 1: Range: 1 V/div Offset: 0 V Sample Mode: Average

Time (s),Channel 1 (V)
-0.08992240827026476,1.523766552774725
-0.08991129827026476,1.520046289657376
-0.08990018827026476,1.523766552774722
-0.08988907827026477,1.51632602654003
-0.08987796827026476,1.520046289657374
-0.08986685827026475,1.520046289657374
-0.08985574827026477,1.520046289657374
-0.08984463827026476,1.520046289657374
-0.08983352827026475,1.520046289657371
-0.08982241827026476,1.516326026540028
-0.08981130827026476,1.520046289657374
-0.08980019827026475,1.516326026540026
-0.08978908827026476,1.516326026540026
-0.08977797827026476,1.516326026540026
-0.08976686827026475,1.512605763422679
-0.08975575827026476,1.512605763422679
-0.08974464827026477,1.512605763422679
-0.08973353827026476,1.512605763422679
-0.08972242827026476,1.508885500305333
-0.08971131827026477,1.512605763422675
-0.08970020827026476,1.508885500305331
-0.08968909827026475,1.512605763422672
-0.08967798827026477,1.50516523718799
-0.08966687827026476,1.508885500305331
-0.08965576827026475,1.505165237187983
-0.08964465827026476,1.505165237187983
-0.08963354827026476,1.508885500305329
-0.08962243827026475,1.508885500305331
-0.08961132827026476,1.508885500305331
-0.08960021827026476,1.505165237187985
-0.08958910827026476,1.505165237187982
-0.08957799827026476,1.501444974070636
-0.08956688827026477,1.505165237187982
-0.08955577827026476,1.501444974070636
-0.08954466827026475,1.501444974070636
-0.08953355827026477,1.501444974070636
-0.08952244827026476,1.501444974070636
-0.08951133827026475,1.497724710953291
-0.08950022827026476,1.501444974070634
-0.08948911827026476,1.497724710953288
-0.08947800827026475,1.497724710953286
-0.08946689827026476,1.49400444783594
-0.08945578827026476,1.49400444783594
-0.08944467827026475,1.497724710953285
-0.08943356827026476,1.490284184718593
-0.08942245827026477,1.494004447835938
-0.08941134827026476,1.49400444783594
-0.08940023827026476,1.49400444783594
-0.08938912827026477,1.490284184718596
-0.08937801827026476,1.49400444783594
-0.08936690827026475,1.490284184718593
-0.08935579827026477,1.490284184718593
-0.08934468827026476,1.486563921601245
-0.08933357827026475,1.490284184718593
-0.08932246827026476,1.490284184718593
-0.08931135827026476,1.486563921601247
-0.08930024827026475,1.490284184718589
-0.08928913827026476,1.482843658483897
-0.08927802827026476,1.486563921601243
-0.08926691827026476,1.486563921601245
-0.08925580827026476,1.486563921601245
-0.08924469827026477,1.482843658483899
-0.08923358827026476,1.482843658483897
-0.08922247827026475,1.482843658483897
-0.08921136827026477,1.482843658483897
-0.08920025827026476,1.479123395366549
-0.08918914827026475,1.479123395366549
-0.08917803827026476,1.479123395366549
-0.08916692827026476,1.479123395366549
-0.08915581827026475,1.479123395366548
-0.08914470827026476,1.475403132249202
-0.08913359827026476,1.479123395366548
-0.08912248827026475,1.475403132249202
-0.08911137827026476,1.475403132249202
-0.08910026827026477,1.475403132249202
-0.08908915827026476,1.479123395366549
-0.08907804827026476,1.471682869131857
-0.08906693827026477,1.475403132249199
-0.08905582827026476,1.471682869131854
-0.08904471827026475,1.471682869131854
-0.08903360827026477,1.471682869131854
-0.08902249827026476,1.471682869131854
-0.08901138827026475,1.471682869131852
-0.08900027827026476,1.467962606014506
-0.08898916827026476,1.467962606014506
-0.08897805827026475,1.467962606014506
-0.08896694827026476,1.467962606014506
-0.08895583827026476,1.46424234289716
-0.08894472827026476,1.467962606014505
-0.08893361827026476,1.464242342897158
-0.08892250827026477,1.464242342897158
-0.08891139827026476,1.430759974841029
-0.08890028827026475,1.423319448606341
-0.08888917827026477,1.430759974841022
-0.08887806827026476,1.434480237958377
-0.08886695827026475,1.430759974841026
-0.08885584827026476,1.42703971172368
-0.08884473827026476,1.423319448606334
-0.08883362827026475,1.430759974841043
-0.08882251827026476,1.460522079779811
-0.08881140827026476,1.460522079779811
-0.08880029827026475,1.460522079779811
-0.08878918827026476,1.460522079779811
-0.08877807827026477,1.460522079779811
-0.08876696827026476,1.460522079779811
-0.08875585827026476,1.456801816662465
-0.08874474827026477,1.456801816662463
-0.08873363827026476,1.456801816662463
-0.08872252827026475,1.45680181666246
-0.08871141827026477,1.453081553545119
-0.08870030827026476,1.456801816662463
-0.08868919827026475,1.453081553545117
-0.08867808827026476,1.456801816662463
-0.08866697827026476,1.453081553545117
-0.08865586827026475,1.453081553545114
-0.08864475827026476,1.449361290427768
-0.08863364827026476,1.449361290427768
-0.08862253827026476,1.449361290427768
-0.08861142827026476,1.449361290427768
-0.08860031827026477,1.445641027310422
-0.08858920827026476,1.449361290427768
-0.08857809827026475,1.44564102731042
-0.08856698827026477,1.44564102731042
-0.08855587827026476,1.449361290427768
-0.08854476827026475,1.441920764193076
-0.08853365827026476,1.44564102731042
-0.08852254827026476,1.44564102731042
-0.08851143827026475,1.445641027310418
-0.08850032827026476,1.441920764193072
-0.08848921827026476,1.445641027310418
-0.08847810827026475,1.438200501075725
-0.08846699827026476,1.438200501075725
-0.08845588827026477,1.438200501075725
-0.08844477827026476,1.441920764193072
-0.08843366827026476,1.43448023795838
-0.08842255827026477,1.434480237958377
-0.08841144827026476,1.434480237958377
-0.08840033827026475,1.434480237958377
-0.08838922827026477,1.434480237958377
-0.08837811827026476,1.434480237958377
-0.08836700827026475,1.430759974841029
-0.08835589827026476,1.430759974841029
-0.08834478827026476,1.430759974841029
-0.08833367827026475,1.430759974841031
-0.08832256827026476,1.434480237958377
-0.08831145827026476,1.427039711723685
-0.08830034827026476,1.430759974841029
-0.08828923827026476,1.430759974841029
-0.08827812827026477,1.427039711723683
-0.08826701827026476,1.427039711723681
-0.08825590827026475,1.423319448606337
-0.08824479827026477,1.427039711723678
-0.08823368827026476,1.423319448606334
-0.08822257827026475,1.427039711723675
-0.08821146827026476,1.419599185488988
-0.08820035827026476,1.423319448606332
-0.08818924827026475,1.419599185488988
-0.08817813827026476,1.423319448606334
-0.08816702827026476,1.419599185488988
-0.08815591827026475,1.423319448606331
-0.08814480827026476,1.415878922371638
-0.08813369827026477,1.419599185488984
-0.08812258827026476,1.419599185488986
-0.08811147827026476,1.41587892237164
-0.08810036827026477,1.419599185488983
-0.08808925827026476,1.415878922371638
-0.08807814827026475,1.415878922371635
-0.08806703827026477,1.412158659254294
-0.08805592827026476,1.415878922371638
-0.08804481827026475,1.412158659254291
-0.08803370827026476,1.412158659254291
-0.08802259827026476,1.412158659254291
-0.08801148827026475,1.412158659254289
-0.08800037827026476,1.408438396136943
-0.08798926827026476,1.408438396136943
-0.08797815827026476,1.408438396136941
-0.08796704827026476,1.404718133019595
-0.08795593827026477,1.408438396136941
-0.08794482827026476,1.404718133019595
-0.08793371827026475,1.40843839613694
-0.08792260827026477,1.404718133019599
-0.08791149827026476,1.404718133019595
-0.08790038827026475,1.397277606784906
-0.08788927827026476,1.404718133019592
-0.08787816827026476,1.397277606784903
-0.08786705827026475,1.400997869902247
-0.08785594827026476,1.400997869902247
-0.08784483827026476,1.397277606784902
-0.08783372827026475,1.3972776067849
-0.08782261827026476,1.3972776067849
-0.08781150827026477,1.3972776067849
-0.08780039827026476,1.3972776067849
-0.08778928827026476,1.393557343667554
-0.08777817827026477,1.393557343667552
-0.08776706827026476,1.389837080550204
-0.08775595827026475,1.389837080550204
-0.08774484827026477,1.389837080550204
-0.08773373827026476,1.386116817432857
-0.08772262827026475,1.386116817432857
-0.08771151827026476,1.386116817432857
-0.08770040827026476,1.386116817432857
-0.08768929827026475,1.386116817432853
-0.08767818827026476,1.378676291198161
-0.08766707827026476,1.382396554315507
-0.08765596827026476,1.378676291198161
-0.08764485827026476,1.378676291198161
-0.08763374827026477,1.378676291198161
-0.08762263827026476,1.378676291198161
-0.08761152827026475,1.374956028080814
-0.08760041827026477,1.374956028080814
-0.08758930827026476,1.367515501846118
-0.08757819827026475,1.367515501846121
-0.08756708827026476,1.371235764963464
-0.08755597827026476,1.36751550184612
-0.08754486827026475,1.36379523872877
-0.08753375827026476,1.36379523872877
-0.08752264827026476,1.36379523872877
-0.08751153827026475,1.356354712494078
-0.08750042827026476,1.36379523872877
-0.08748931827026477,1.356354712494078
-0.08747820827026476,1.356354712494075
-0.08746709827026476,1.352634449376729
-0.08745598827026477,1.356354712494072
-0.08744487827026476,1.348914186259379
-0.08743376827026475,1.352634449376724
-0.08742265827026477,1.348914186259383
-0.08741154827026476,1.348914186259379
-0.08740043827026475,1.348914186259379
-0.08738932827026476,1.348914186259379
-0.08737821827026476,1.348914186259379
-0.08736710827026475,1.341473660024686
-0.08735599827026476,1.345193923142032
-0.08734488827026476,1.33775339690734
-0.08733377827026476,1.337753396907336
-0.08732266827026476,1.337753396907336
-0.08731155827026477,1.337753396907336
-0.08730044827026476,1.330312870672641
-0.08728933827026475,1.330312870672641
-0.08727822827026477,1.330312870672641
-0.08726711827026476,1.326592607555293
-0.08725600827026475,1.330312870672638
-0.08724489827026476,1.326592607555293
-0.08723378827026476,1.326592607555293
-0.08722267827026475,1.322872344437946
-0.08721156827026476,1.322872344437946
-0.08720045827026476,1.322872344437946
-0.08718934827026475,1.319152081320598
-0.08717823827026476,1.319152081320598
-0.08716712827026477,1.319152081320598
-0.08715601827026476,1.31543181820325
-0.08714490827026476,1.31543181820325
-0.08713379827026477,1.31543181820325
-0.08712268827026476,1.311711555085902
-0.08711157827026475,1.311711555085902
-0.08710046827026477,1.311711555085902
-0.08708935827026476,1.311711555085902
-0.08707824827026475,1.307991291968555
-0.08706713827026476,1.307991291968555
-0.08705602827026476,1.304271028851209
-0.08704491827026475,1.304271028851205
-0.08703380827026476,1.300550765733859
-0.08702269827026476,1.304271028851205
-0.08701158827026476,1.300550765733861
-0.08700047827026476,1.304271028851207
-0.08698936827026477,1.296830502616515
-0.08697825827026476,1.296830502616511
-0.08696714827026475,1.296830502616508
-0.08695603827026477,1.293110239499167
-0.08694492827026476,1.293110239499164
-0.08693381827026475,1.289389976381816
-0.08692270827026476,1.289389976381816
-0.08691159827026476,1.289389976381816
-0.08690048827026475,1.289389976381814
-0.08688937827026476,1.285669713264468
-0.08687826827026476,1.285669713264468
-0.08686715827026475,1.281949450147121
-0.08685604827026476,1.281949450147121
-0.08684493827026477,1.281949450147121
-0.08683382827026476,1.278229187029773
-0.08682271827026476,1.278229187029773
-0.08681160827026477,1.278229187029773
-0.08680049827026476,1.274508923912425
-0.08678938827026475,1.274508923912425
-0.08677827827026476,1.274508923912422
-0.08676716827026476,1.26706839767773
-0.08675605827026475,1.270788660795076
-0.08674494827026476,1.26706839767773
-0.08673383827026476,1.26706839767773
-0.08672272827026475,1.267068397677728
-0.08671161827026476,1.263348134560382
-0.08670050827026476,1.259627871443036
-0.08668939827026476,1.259627871443034
-0.08667828827026476,1.259627871443034
-0.08666717827026477,1.25590760832569
-0.08665606827026476,1.255907608325687
-0.08664495827026475,1.252187345208339
-0.08663384827026477,1.252187345208339
-0.08662273827026476,1.248467082090991
-0.08661162827026475,1.248467082090988
-0.08660051827026476,1.244746818973643
-0.08658940827026476,1.24846708209099
-0.08657829827026475,1.241026555856298
-0.08656718827026476,1.244746818973643
-0.08655607827026476,1.237306292738952
-0.08654496827026475,1.237306292738948
-0.08653385827026476,1.237306292738948
-0.08652274827026477,1.233586029621602
-0.08651163827026476,1.2335860296216
-0.08650052827026476,1.229865766504254
-0.08648941827026477,1.229865766504253
-0.08647830827026476,1.226145503386905
-0.08646719827026475,1.229865766504246
-0.08645608827026476,1.222425240269557
-0.08644497827026476,1.222425240269557
-0.08643386827026475,1.218704977152211
-0.08642275827026476,1.222425240269557
-0.08641164827026476,1.214984714034865
-0.08640053827026475,1.211264450917517
-0.08638942827026476,1.21870497715221
-0.08637831827026476,1.207544187800172
-0.08636720827026476,1.211264450917512
-0.08635609827026476,1.207544187800166
-0.08634498827026477,1.207544187800166
-0.08633387827026476,1.207544187800166
-0.08632276827026475,1.203823924682792
-0.08631165827026477,1.174061819744064
-0.08630054827026476,1.162901030391994
-0.08628943827026475,1.166621293509345
-0.08627832827026476,1.170341556626689
-0.08626721827026476,1.166621293509343
-0.08625610827026475,1.162901030391991
-0.08624499827026476,1.155460504157299
-0.08623388827026476,1.162901030391991
-0.08622277827026475,1.192663135330776
-0.08621166827026476,1.192663135330776
-0.08620055827026477,1.192663135330776
-0.08618944827026476,1.188942872213428
-0.08617833827026476,1.188942872213428
-0.08616722827026477,1.181502345978739
-0.08615611827026476,1.18522260909608
-0.08614500827026475,1.181502345978732
-0.08613389827026476,1.181502345978731
-0.08612278827026476,1.177782082861385
-0.08611167827026475,1.177782082861383
-0.08610056827026476,1.174061819744037
-0.08608945827026476,1.174061819744037
-0.08607834827026475,1.174061819744035
-0.08606723827026476,1.170341556626689
-0.08605612827026476,1.170341556626689
-0.08604501827026476,1.166621293509342
-0.08603390827026476,1.166621293509342
-0.08602279827026477,1.162901030391997
-0.08601168827026476,1.162901030391994
-0.08600057827026475,1.159180767274646
-0.08598946827026477,1.159180767274646
-0.08597835827026476,1.159180767274646
-0.08596724827026475,1.155460504157295
-0.08595613827026476,1.151740241039951
-0.08594502827026476,1.155460504157297
-0.08593391827026475,1.151740241039949
-0.08592280827026476,1.148019977922603
-0.08591169827026476,1.151740241039949
-0.08590058827026475,1.148019977922601
-0.08588947827026476,1.144299714805255
-0.08587836827026477,1.140579451687909
-0.08586725827026476,1.140579451687908
-0.08585614827026476,1.133138925453216
-0.08584503827026477,1.140579451687901
-0.08583392827026476,1.133138925453212
-0.08582281827026475,1.136859188570553
-0.08581170827026476,1.129418662335866
-0.08580059827026476,1.133138925453212
-0.08578948827026475,1.125698399218517
-0.08577837827026476,1.125698399218517
-0.08576726827026476,1.125698399218517
-0.08575615827026475,1.121978136101169
-0.08574504827026476,1.121978136101169
-0.08573393827026476,1.118257872983823
-0.08572282827026476,1.11825787298382
-0.08571171827026476,1.114537609866474
-0.08570060827026477,1.118257872983818
-0.08568949827026476,1.110817346749126
-0.08567838827026475,1.11453760986647
-0.08566727827026477,1.110817346749129
-0.08565616827026476,1.110817346749126
-0.08564505827026475,1.107097083631778
-0.08563394827026476,1.107097083631778
-0.08562283827026476,1.103376820514432
-0.08561172827026475,1.107097083631773
-0.08560061827026476,1.095936294279735
-0.08558950827026476,1.099656557397081
-0.08557839827026475,1.095936294279735
-0.08556728827026476,1.095936294279735
-0.08555617827026477,1.095936294279735
-0.08554506827026476,1.092216031162387
-0.08553395827026476,1.088495768045041
-0.08552284827026477,1.08849576804504
-0.08551173827026476,1.08849576804504
-0.08550062827026475,1.084775504927692
-0.08548951827026476,1.08477550492769
-0.08547840827026476,1.081055241810344
-0.08546729827026475,1.077334978692996
-0.08545618827026476,1.077334978692996
-0.08544507827026476,1.077334978692996
-0.08543396827026475,1.073614715575649
-0.08542285827026476,1.073614715575649
-0.08541174827026476,1.073614715575649
-0.08540063827026476,1.069894452458299
-0.08538952827026476,1.066174189340953
-0.08537841827026477,1.069894452458298
-0.08536730827026476,1.066174189340953
-0.08535619827026475,1.058733663106265
-0.08534508827026477,1.066174189340947
-0.08533397827026476,1.058733663106258
-0.08532286827026475,1.058733663106258
-0.08531175827026476,1.058733663106258
-0.08530064827026476,1.058733663106258
-0.08528953827026475,1.055013399988908
-0.08527842827026476,1.051293136871563
-0.08526731827026476,1.047572873754216
-0.08525620827026476,1.047572873754215
-0.08524509827026476,1.047572873754215
-0.08523398827026477,1.043852610636869
-0.08522287827026476,1.043852610636867
-0.08521176827026475,1.043852610636864
-0.08520065827026477,1.040132347519523
-0.08518954827026476,1.036412084402172
-0.08517843827026475,1.036412084402168
-0.08516732827026476,1.032691821284826
-0.08515621827026476,1.036412084402172
-0.08514510827026475,1.032691821284822
-0.08513399827026476,1.028971558167476
-0.08512288827026476,1.032691821284822
-0.08511177827026475,1.025251295050128
-0.08510066827026476,1.025251295050128
-0.08508955827026476,1.025251295050128
-0.08507844827026476,1.025251295050127
-0.08506733827026476,1.021531031932783
-0.08505622827026477,1.017810768815437
-0.08504511827026476,1.014090505698085
-0.08503400827026475,1.01781076881543
-0.08502289827026477,1.014090505698089
-0.08501178827026476,1.014090505698085
-0.08500067827026475,1.014090505698082
-0.08498956827026476,1.00664997946339
-0.08497845827026476,1.010370242580736
-0.08496734827026475,1.00664997946339
-0.08495623827026476,1.00664997946339
-0.08494512827026476,0.999209453228698
-0.08493401827026476,1.00292971634604
-0.08492290827026476,0.9992094532286947
-0.08491179827026477,0.9992094532286947
-0.08490068827026476,0.995489190111347
-0.08488957827026475,0.9954891901113402
-0.08487846827026477,0.9880486638766582
-0.08486735827026476,0.9917689269939992
-0.08485624827026475,0.9880486638766481
-0.08484513827026476,0.9843284007593055
-0.08483402827026476,0.9880486638766515
-0.08482291827026475,0.9806081376419561
-0.08481180827026476,0.9806081376419561
-0.08480069827026476,0.9806081376419561
-0.08478958827026475,0.9806081376419528
-0.08477847827026476,0.9731676114072607
-0.08476736827026476,0.9768878745246067
-0.08475625827026476,0.973167611407259
-0.08474514827026476,0.9694473482899146
-0.08473403827026477,0.969447348289913
-0.08472292827026476,0.9657270851725652
-0.08471181827026475,0.9620068220552175
-0.08470070827026477,0.9620068220552175
-0.08468959827026476,0.9620068220552175
-0.08467848827026475,0.9582865589378698
-0.08466737827026476,0.9582865589378698
-0.08465626827026476,0.9545662958205238
-0.08464515827026475,0.9545662958205204
-0.08463404827026476,0.9508460327031744
-0.08462293827026476,0.9545662958205204
-0.08461182827026476,0.9471257695858284
-0.08460071827026476,0.9508460327031744
-0.08458960827026477,0.9434055064684823
-0.08457849827026476,0.9471257695858267
-0.08456738827026475,0.9396852433511312
-0.08455627827026477,0.9396852433511312
-0.08454516827026476,0.9396852433511312
-0.08453405827026475,0.9396852433511279
-0.08452294827026476,0.9359649802337835
-0.08451183827026476,0.9359649802337835
-0.08450072827026475,0.9322447171164342
-0.08448961827026476,0.9285244539990881
-0.08447850827026476,0.9285244539990881
-0.08446739827026475,0.9285244539990865
-0.08445628827026476,0.9248041908817404
-0.08444517827026476,0.9248041908817404
-0.08443406827026476,0.9248041908817387
-0.08442295827026476,0.9210839277643944
-0.08441184827026477,0.9210839277643927
-0.08440073827026476,0.9136434015296973
-0.08438962827026475,0.9173636646470417
-0.08437851827026477,0.9136434015297006
-0.08436740827026476,0.9136434015296973
-0.08435629827026475,0.9136434015296956
-0.08434518827026476,0.9099231384123495
-0.08433407827026476,0.9099231384123495
